t,mag10_0
0,0.02
100,0.02
200,0.02
300,0.02
400,0.02
500,0.02
600,0.02
700,0.02
800,0.02
900,0.02
1000,0.02
1100,0.02
1200,0.02
1300,0.02
1400,0.02
1500,0.02
1600,0.02
1700,0.02
1800,0.02
1900,0.02
2000,0.02
2100,0.02
2200,0.02
2300,0.02
2400,0.02
2500,0.02
2600,0.02
2700,0.02
2800,0.02
2900,0.02
3000,0.02
3100,0.02
3200,0.02
3300,0.02
3400,0.02
3500,0.02
3600,0.02
3700,0.02
3800,0.02
3900,0.02
4000,0.02
4100,0.02
4200,0.02
4300,0.02
4400,0.02
4500,0.02
4600,0.02
4700,0.02
4800,0.02
4900,0.02
5000,0.02
5100,0.02
5200,0.02
5300,0.02
5400,0.02
5500,0.02
5600,0.02
5700,0.02
5800,0.02
5900,0.02
6000,0.02
6100,0.02
6200,0.02
6300,0.02
6400,0.02
6500,0.02
6600,0.02
6700,0.02
6800,0.02
6900,0.02
7000,0.02
7100,0.02
7200,0.02
7300,0.02
7400,0.02
7500,0.02
7600,0.02
7700,0.02
7800,0.02
7900,0.02
8000,0.02
8100,0.02
8200,0.02
8300,0.02
8400,0.02
8500,0.02
8600,0.02
8700,0.02
8800,0.02
8900,0.02
9000,0.02
9100,0.02
9200,0.02
9300,0.02
9400,0.02
9500,0.02
9600,0.02
9700,0.02
9800,0.02
9900,0.02
10000,0.02
10100,0.02
10200,0.02
10300,0.02
10400,0.02
10500,0.02
10600,0.02
10700,0.02
10800,0.02
10900,0.02
11000,0.02
11100,0.02
11200,0.02
11300,0.02
11400,0.02
11500,0.02
11600,0.02
11700,0.02
11800,0.02
11900,0.02
12000,0.02
12100,0.02
12200,0.02
12300,0.02
12400,0.02
12500,0.02
12600,0.02
12700,0.02
12800,0.02
12900,0.02
13000,0.02
13100,0.02
13200,0.02
13300,0.02
13400,0.02
13500,0.02
13600,0.02
13700,0.02
13800,0.02
13900,0.02
14000,0.02
14100,0.02
14200,0.02
14300,0.02
14400,0.02
14500,0.02
14600,0.02
14700,0.02
14800,0.02
14900,0.02
15000,0.02
15100,0.02
15200,0.02
15300,0.02
15400,0.02
15500,0.02
15600,0.02
15700,0.02
15800,0.02
15900,0.02
16000,0.02
16100,0.02
16200,0.02
16300,0.02
16400,0.02
16500,0.02
16600,0.02
16700,0.02
16800,0.02
16900,0.02
17000,0.02
17100,0.02
17200,0.02
17300,0.02
17400,0.02
17500,0.02
17600,0.02
17700,0.02
17800,0.02
17900,0.02
18000,0.02
18100,0.02
18200,0.02
18300,0.02
18400,0.02
18500,0.02
18600,0.02
18700,0.02
18800,0.02
18900,0.02
19000,0.02
19100,0.02
19200,0.02
19300,0.02
19400,0.02
19500,0.02
19600,0.02
19700,0.02
19800,0.02
19900,0.02
20000,0.02
20100,0.02
20200,0.02
20300,0.02
20400,0.02
20500,0.02
20600,0.02
20700,0.02
20800,0.02
20900,0.02
21000,0.02
21100,0.02
21200,0.02
21300,0.02
21400,0.02
21500,0.02
21600,0.02
21700,0.02
21800,0.02
21900,0.02
22000,0.02
22100,0.02
22200,0.02
22300,0.02
22400,0.02
22500,0.02
22600,0.02
22700,0.02
22800,0.02
22900,0.02
23000,0.02
23100,0.02
23200,0.02
23300,0.02
23400,0.02
23500,0.02
23600,0.02
23700,0.02
23800,0.02
23900,0.02
24000,0.02
24100,0.02
24200,0.02
24300,0.02
24400,0.02
24500,0.02
24600,0.02
24700,0.02
24800,0.02
24900,0.02
25000,0.02
25100,0.02
25200,0.02
25300,0.02
25400,0.02
25500,0.02
25600,0.02
25700,0.02
25800,0.02
25900,0.02
26000,0.02
26100,0.02
26200,0.02
26300,0.02
26400,0.02
26500,0.02
26600,0.02
26700,0.02
26800,0.02
26900,0.02
27000,0.02
27100,0.02
27200,0.02
27300,0.02
27400,0.02
27500,0.02
27600,0.02
27700,0.02
27800,0.02
27900,0.02
28000,0.02
28100,0.02
28200,0.02
28300,0.02
28400,0.02
28500,0.02
28600,0.02
28700,0.02
28800,0.02
28900,0.02
29000,0.02
29100,0.02
29200,0.02
29300,0.02
29400,0.02
29500,0.02
29600,0.02
29700,0.02
29800,0.02
29900,0.02
30000,0.02
30100,0.02
30200,0.02
30300,0.02
30400,0.02
30500,0.02
30600,0.02
30700,0.02
30800,0.02
30900,0.02
31000,0.02
31100,0.02
31200,0.02
31300,0.02
31400,0.02
31500,0.02
31600,0.02
31700,0.02
31800,0.02
31900,0.02
32000,0.02
32100,0.02
32200,0.02
32300,0.02
32400,0.02
32500,0.02
32600,0.02
32700,0.02
32800,0.02
32900,0.02
33000,0.02
33100,0.02
33200,0.02
33300,0.02
33400,0.02
33500,0.02
33600,0.02
33700,0.02
33800,0.02
33900,0.02
34000,0.02
34100,0.02
34200,0.02
34300,0.02
34400,0.02
34500,0.02
34600,0.02
34700,0.02
34800,0.02
34900,0.02
35000,0.02
35100,0.02
35200,0.02
35300,0.02
35400,0.02
35500,0.02
35600,0.02
35700,0.02
35800,0.02
35900,0.02
36000,0.02
36100,0.02
36200,0.02
36300,0.02
36400,0.02
36500,0.02
36600,0.02
36700,0.02
36800,0.02
36900,0.02
37000,0.02
37100,0.02
37200,0.02
37300,0.02
37400,0.02
37500,0.02
37600,0.02
37700,0.02
37800,0.02
37900,0.02
38000,0.02
38100,0.02
38200,0.02
38300,0.02
38400,0.02
38500,0.02
38600,0.02
38700,0.02
38800,0.02
38900,0.02
39000,0.02
39100,0.02
39200,0.02
39300,0.02
39400,0.02
39500,0.02
39600,0.02
39700,0.02
39800,0.02
39900,0.02
40000,0.02
40100,0.02
40200,0.02
40300,0.02
40400,0.02
40500,0.02
40600,0.02
40700,0.02
40800,0.02
40900,0.02
41000,0.02
41100,0.02
41200,0.02
41300,0.02
41400,0.02
41500,0.02
41600,0.02
41700,0.02
41800,0.02
41900,0.02
42000,0.02
42100,0.02
42200,0.02
42300,0.02
42400,0.02
42500,0.02
42600,0.02
42700,0.02
42800,0.02
42900,0.02
43000,0.02
43100,0.02
43200,0.02
43300,0.02
43400,0.02
43500,0.02
43600,0.02
43700,0.02
43800,0.02
43900,0.02
44000,0.02
44100,0.02
44200,0.02
44300,0.02
44400,0.02
44500,0.02
44600,0.02
44700,0.02
44800,0.02
44900,0.02
45000,0.02
45100,0.02
45200,0.02
45300,0.02
45400,0.02
45500,0.02
45600,0.02
45700,0.02
45800,0.02
45900,0.02
46000,0.02
46100,0.02
46200,0.02
46300,0.02
46400,0.02
46500,0.02
46600,0.02
46700,0.02
46800,0.02
46900,0.02
47000,0.02
47100,0.02
47200,0.02
47300,0.02
47400,0.02
47500,0.02
47600,0.02
47700,0.02
47800,0.02
47900,0.02
48000,0.02
48100,0.02
48200,0.02
48300,0.02
48400,0.02
48500,0.02
48600,0.02
48700,0.02
48800,0.02
48900,0.02
49000,0.02
49100,0.02
49200,0.02
49300,0.02
49400,0.02
49500,0.02
49600,0.02
49700,0.02
49800,0.02
49900,0.02
50000,0.02
50100,0.02
50200,0.02
50300,0.02
50400,0.02
50500,0.02
50600,0.02
50700,0.02
50800,0.02
50900,0.02
51000,0.02
51100,0.02
51200,0.02
51300,0.02
51400,0.02
51500,0.02
51600,0.02
51700,0.02
51800,0.02
51900,0.02
52000,0.02
52100,0.02
52200,0.02
52300,0.02
52400,0.02
52500,0.02
52600,0.02
52700,0.02
52800,0.02
52900,0.02
53000,0.02
53100,0.02
53200,0.02
53300,0.02
53400,0.02
53500,0.02
53600,0.02
53700,0.02
53800,0.02
53900,0.02
54000,0.02
54100,0.02
54200,0.02
54300,0.02
54400,0.02
54500,0.02
54600,0.02
54700,0.02
54800,0.02
54900,0.02
55000,0.02
55100,0.02
55200,0.02
55300,0.02
55400,0.02
55500,0.02
55600,0.02
55700,0.02
55800,0.02
55900,0.02
56000,0.02
56100,0.02
56200,0.02
56300,0.02
56400,0.02
56500,0.02
56600,0.02
56700,0.02
56800,0.02
56900,0.02
57000,0.02
57100,0.02
57200,0.02
57300,0.02
57400,0.02
57500,0.02
57600,0.02
57700,0.02
57800,0.02
57900,0.02
58000,0.02
58100,0.02
58200,0.02
58300,0.02
58400,0.02
58500,0.02
58600,0.02
58700,0.02
58800,0.02
58900,0.02
59000,0.02
59100,0.02
59200,0.02
59300,0.02
59400,0.02
59500,0.02
59600,0.02
59700,0.02
59800,0.02
59900,0.02
60000,0.02
60100,0.02
60200,0.02
60300,0.02
60400,0.02
60500,0.02
60600,0.02
60700,0.02
60800,0.02
60900,0.02
61000,0.02
61100,0.02
61200,0.02
61300,0.02
61400,0.02
61500,0.02
61600,0.02
61700,0.02
61800,0.02
61900,0.02
62000,0.02
62100,0.02
62200,0.02
62300,0.02
62400,0.02
62500,0.02
62600,0.02
62700,0.02
62800,0.02
62900,0.02
63000,0.02
63100,0.02
63200,0.02
63300,0.02
63400,0.02
63500,0.02
63600,0.02
63700,0.02
63800,0.02
63900,0.02
64000,0.02
64100,0.02
64200,0.02
64300,0.02
64400,0.02
64500,0.02
64600,0.02
64700,0.02
64800,0.02
64900,0.02
65000,0.02
65100,0.02
65200,0.02
65300,0.02
65400,0.02
65500,0.02
65600,0.02
65700,0.02
65800,0.02
65900,0.02
66000,0.02
66100,0.02
66200,0.02
66300,0.02
66400,0.02
66500,0.02
66600,0.02
66700,0.02
66800,0.02
66900,0.02
67000,0.02
67100,0.02
67200,0.02
67300,0.02
67400,0.02
67500,0.02
67600,0.02
67700,0.02
67800,0.02
67900,0.02
68000,0.02
68100,0.02
68200,0.02
68300,0.02
68400,0.02
68500,0.02
68600,0.02
68700,0.02
68800,0.02
68900,0.02
69000,0.02
69100,0.02
69200,0.02
69300,0.02
69400,0.02
69500,0.02
69600,0.02
69700,0.02
69800,0.02
69900,0.02
70000,0.02
70100,0.02
70200,0.02
70300,0.02
70400,0.02
70500,0.02
70600,0.02
70700,0.02
70800,0.02
70900,0.02
71000,0.02
71100,0.02
71200,0.02
71300,0.02
71400,0.02
71500,0.02
71600,0.02
71700,0.02
71800,0.02
71900,0.02
72000,0.02
72100,0.02
72200,0.02
72300,0.02
72400,0.02
72500,0.02
72600,0.02
72700,0.02
72800,0.02
72900,0.02
73000,0.02
73100,0.02
73200,0.02
73300,0.02
73400,0.02
73500,0.02
73600,0.02
73700,0.02
73800,0.02
73900,0.02
74000,0.02
74100,0.02
74200,0.02
74300,0.02
74400,0.02
74500,0.02
74600,0.02
74700,0.02
74800,0.02
74900,0.02
75000,0.02
75100,0.02
75200,0.02
75300,0.02
75400,0.02
75500,0.02
75600,0.02
75700,0.02
75800,0.02
75900,0.02
76000,0.02
76100,0.02
76200,0.02
76300,0.02
76400,0.02
76500,0.02
76600,0.02
76700,0.02
76800,0.02
76900,0.02
77000,0.02
77100,0.02
77200,0.02
77300,0.02
77400,0.02
77500,0.02
77600,0.02
77700,0.02
77800,0.02
77900,0.02
78000,0.02
78100,0.02
78200,0.02
78300,0.02
78400,0.02
78500,0.02
78600,0.02
78700,0.02
78800,0.02
78900,0.02
79000,0.02
79100,0.02
79200,0.02
79300,0.02
79400,0.02
79500,0.02
79600,0.02
79700,0.02
79800,0.02
79900,0.02
80000,0.02
80100,0.02
80200,0.02
80300,0.02
80400,0.02
80500,0.02
80600,0.02
80700,0.02
80800,0.02
80900,0.02
81000,0.02
81100,0.02
81200,0.02
81300,0.02
81400,0.02
81500,0.02
81600,0.02
81700,0.02
81800,0.02
81900,0.02
82000,0.02
82100,0.02
82200,0.02
82300,0.02
82400,0.02
82500,0.02
82600,0.02
82700,0.02
82800,0.02
82900,0.02
83000,0.02
83100,0.02
83200,0.02
83300,0.02
83400,0.02
83500,0.02
83600,0.02
83700,0.02
83800,0.02
83900,0.02
84000,0.02
84100,0.02
84200,0.02
84300,0.02
84400,0.02
84500,0.02
84600,0.02
84700,0.02
84800,0.02
84900,0.02
85000,0.02
85100,0.02
85200,0.02
85300,0.02
85400,0.02
85500,0.02
85600,0.02
85700,0.02
85800,0.02
85900,0.02
86000,0.02
86100,0.02
86200,0.02
86300,0.02
86400,0.02
86500,0.02
86600,0.02
86700,0.02
86800,0.02
86900,0.02
87000,0.02
87100,0.02
87200,0.02
87300,0.02
87400,0.02
87500,0.02
87600,0.02
87700,0.02
87800,0.02
87900,0.02
88000,0.02
88100,0.02
88200,0.02
88300,0.02
88400,0.02
88500,0.02
88600,0.02
88700,0.02
88800,0.02
88900,0.02
89000,0.02
89100,0.02
89200,0.02
89300,0.02
89400,0.02
89500,0.02
89600,0.02
89700,0.02
89800,0.02
89900,0.02
90000,0.02
90100,0.02
90200,0.02
90300,0.02
90400,0.02
90500,0.02
90600,0.02
90700,0.02
90800,0.02
90900,0.02
91000,0.02
91100,0.02
91200,0.02
91300,0.02
91400,0.02
91500,0.02
91600,0.02
91700,0.02
91800,0.02
91900,0.02
92000,0.02
92100,0.02
92200,0.02
92300,0.02
92400,0.02
92500,0.02
92600,0.02
92700,0.02
92800,0.02
92900,0.02
93000,0.02
93100,0.02
93200,0.02
93300,0.02
93400,0.02
93500,0.02
93600,0.02
93700,0.02
93800,0.02
93900,0.02
94000,0.02
94100,0.02
94200,0.02
94300,0.02
94400,0.02
94500,0.02
94600,0.02
94700,0.02
94800,0.02
94900,0.02
95000,0.02
95100,0.02
95200,0.02
95300,0.02
95400,0.02
95500,0.02
95600,0.02
95700,0.02
95800,0.02
95900,0.02
96000,0.02
96100,0.02
96200,0.02
96300,0.02
96400,0.02
96500,0.02
96600,0.02
96700,0.02
96800,0.02
96900,0.02
97000,0.02
97100,0.02
97200,0.02
97300,0.02
97400,0.02
97500,0.02
97600,0.02
97700,0.02
97800,0.02
97900,0.02
98000,0.02
98100,0.02
98200,0.02
98300,0.02
98400,0.02
98500,0.02
98600,0.02
98700,0.02
98800,0.02
98900,0.02
99000,0.02
99100,0.02
99200,0.02
99300,0.02
99400,0.02
99500,0.02
99600,0.02
99700,0.02
99800,0.02
99900,0.02
100000,0.02
100100,0.02
100200,0.02
100300,0.02
100400,0.02
100500,0.02
100600,0.02
100700,0.02
100800,0.02
100900,0.02
101000,0.02
101100,0.02
101200,0.02
101300,0.02
101400,0.02
101500,0.02
101600,0.02
101700,0.02
101800,0.02
101900,0.02
102000,0.02
102100,0.02
102200,0.02
102300,0.02
102400,0.02
102500,0.02
102600,0.02
102700,0.02
102800,0.02
102900,0.02
103000,0.02
103100,0.02
103200,0.02
103300,0.02
103400,0.02
103500,0.02
103600,0.02
103700,0.02
103800,0.02
103900,0.02
104000,0.02
104100,0.02
104200,0.02
104300,0.02
104400,0.02
104500,0.02
104600,0.02
104700,0.02
104800,0.02
104900,0.02
105000,0.02
105100,0.02
105200,0.02
105300,0.02
105400,0.02
105500,0.02
105600,0.02
105700,0.02
105800,0.02
105900,0.02
106000,0.02
106100,0.02
106200,0.02
106300,0.02
106400,0.02
106500,0.02
106600,0.02
106700,0.02
106800,0.02
106900,0.02
107000,0.02
107100,0.02
107200,0.02
107300,0.02
107400,0.02
107500,0.02
107600,0.02
107700,0.02
107800,0.02
107900,0.02
108000,0.02
108100,0.02
108200,0.02
108300,0.02
108400,0.02
108500,0.02
108600,0.02
108700,0.02
108800,0.02
108900,0.02
109000,0.02
109100,0.02
109200,0.02
109300,0.02
109400,0.02
109500,0.02
109600,0.02
109700,0.02
109800,0.02
109900,0.02
110000,0.02
110100,0.02
110200,0.02
110300,0.02
110400,0.02
110500,0.02
110600,0.02
110700,0.02
110800,0.02
110900,0.02
111000,0.02
111100,0.02
111200,0.02
111300,0.02
111400,0.02
111500,0.02
111600,0.02
111700,0.02
111800,0.02
111900,0.02
112000,0.02
112100,0.02
112200,0.02
112300,0.02
112400,0.02
112500,0.02
112600,0.02
112700,0.02
112800,0.02
112900,0.02
113000,0.02
113100,0.02
113200,0.02
113300,0.02
113400,0.02
113500,0.02
113600,0.02
113700,0.02
113800,0.02
113900,0.02
114000,0.02
114100,0.02
114200,0.02
114300,0.02
114400,0.02
114500,0.02
114600,0.02
114700,0.02
114800,0.02
114900,0.02
115000,0.02
115100,0.02
115200,0.02
115300,0.02
115400,0.02
115500,0.02
115600,0.02
115700,0.02
115800,0.02
115900,0.02
116000,0.02
116100,0.02
116200,0.02
116300,0.02
116400,0.02
116500,0.02
116600,0.02
116700,0.02
116800,0.02
116900,0.02
117000,0.02
117100,0.02
117200,0.02
117300,0.02
117400,0.02
117500,0.02
117600,0.02
117700,0.02
117800,0.02
117900,0.02
118000,0.02
118100,0.02
118200,0.02
118300,0.02
118400,0.02
118500,0.02
118600,0.02
118700,0.02
118800,0.02
118900,0.02
119000,0.02
119100,0.02
119200,0.02
119300,0.02
119400,0.02
119500,0.02
119600,0.02
119700,0.02
119800,0.02
119900,0.02
120000,0.02
120100,0.02
120200,0.02
120300,0.02
120400,0.02
120500,0.02
120600,0.02
120700,0.02
120800,0.02
120900,0.02
121000,0.02
121100,0.02
121200,0.02
121300,0.02
121400,0.02
121500,0.02
121600,0.02
121700,0.02
121800,0.02
121900,0.02
122000,0.02
122100,0.02
122200,0.02
122300,0.02
122400,0.02
122500,0.02
122600,0.02
122700,0.02
122800,0.02
122900,0.02
123000,0.02
123100,0.02
123200,0.02
123300,0.02
123400,0.02
123500,0.02
123600,0.02
123700,0.02
123800,0.02
123900,0.02
124000,0.02
124100,0.02
124200,0.02
124300,0.02
124400,0.02
124500,0.02
124600,0.02
124700,0.02
124800,0.02
124900,0.02
125000,0.02
125100,0.02
125200,0.02
125300,0.02
125400,0.02
125500,0.02
125600,0.02
125700,0.02
125800,0.02
125900,0.02
126000,0.02
126100,0.02
126200,0.02
126300,0.02
126400,0.02
126500,0.02
126600,0.02
126700,0.02
126800,0.02
126900,0.02
127000,0.02
127100,0.02
127200,0.02
127300,0.02
127400,0.02
127500,0.02
127600,0.02
127700,0.02
127800,0.02
127900,0.02
128000,0.02
128100,0.02
128200,0.02
128300,0.02
128400,0.02
128500,0.02
128600,0.02
128700,0.02
128800,0.02
128900,0.02
129000,0.02
129100,0.02
129200,0.02
129300,0.02
129400,0.02
129500,0.02
129600,0.02
129700,0.02
129800,0.02
129900,0.02
130000,0.02
130100,0.02
130200,0.02
130300,0.02
130400,0.02
130500,0.02
130600,0.02
130700,0.02
130800,0.02
130900,0.02
131000,0.02
131100,0.02
131200,0.02
131300,0.02
131400,0.02
131500,0.02
131600,0.02
131700,0.02
131800,0.02
131900,0.02
132000,0.02
132100,0.02
132200,0.02
132300,0.02
132400,0.02
132500,0.02
132600,0.02
132700,0.02
132800,0.02
132900,0.02
133000,0.02
133100,0.02
133200,0.02
133300,0.02
133400,0.02
133500,0.02
133600,0.02
133700,0.02
133800,0.02
133900,0.02
134000,0.02
134100,0.02
134200,0.02
134300,0.02
134400,0.02
134500,0.02
134600,0.02
134700,0.02
134800,0.02
134900,0.02
135000,0.02
135100,0.02
135200,0.02
135300,0.02
135400,0.02
135500,0.02
135600,0.02
135700,0.02
135800,0.02
135900,0.02
136000,0.02
136100,0.02
136200,0.02
136300,0.02
136400,0.02
136500,0.02
136600,0.02
136700,0.02
136800,0.02
136900,0.02
137000,0.02
137100,0.02
137200,0.02
137300,0.02
137400,0.02
137500,0.02
137600,0.02
137700,0.02
137800,0.02
137900,0.02
138000,0.02
138100,0.02
138200,0.02
138300,0.02
138400,0.02
138500,0.02
138600,0.02
138700,0.02
138800,0.02
138900,0.02
139000,0.02
139100,0.02
139200,0.02
139300,0.02
139400,0.02
139500,0.02
139600,0.02
139700,0.02
139800,0.02
139900,0.02
140000,0.02
140100,0.02
140200,0.02
140300,0.02
140400,0.02
140500,0.02
140600,0.02
140700,0.02
140800,0.02
140900,0.02
141000,0.02
141100,0.02
141200,0.02
141300,0.02
141400,0.02
141500,0.02
141600,0.02
141700,0.02
141800,0.02
141900,0.02
142000,0.02
142100,0.02
142200,0.02
142300,0.02
142400,0.02
142500,0.02
142600,0.02
142700,0.02
142800,0.02
142900,0.02
143000,0.02
143100,0.02
143200,0.02
143300,0.02
143400,0.02
143500,0.02
143600,0.02
143700,0.02
143800,0.02
143900,0.02
144000,0.02
144100,0.02
144200,0.02
144300,0.02
144400,0.02
144500,0.02
144600,0.02
144700,0.02
144800,0.02
144900,0.02
145000,0.02
145100,0.02
145200,0.02
145300,0.02
145400,0.02
145500,0.02
145600,0.02
145700,0.02
145800,0.02
145900,0.02
146000,0.02
146100,0.02
146200,0.02
146300,0.02
146400,0.02
146500,0.02
146600,0.02
146700,0.02
146800,0.02
146900,0.02
147000,0.02
147100,0.02
147200,0.02
147300,0.02
147400,0.02
147500,0.02
147600,0.02
147700,0.02
147800,0.02
147900,0.02
148000,0.02
148100,0.02
148200,0.02
148300,0.02
148400,0.02
148500,0.02
148600,0.02
148700,0.02
148800,0.02
148900,0.02
149000,0.02
149100,0.02
149200,0.02
149300,0.02
149400,0.02
149500,0.02
149600,0.02
149700,0.02
149800,0.02
149900,0.02
150000,0.02
150100,0.02
150200,0.02
150300,0.02
150400,0.02
150500,0.02
150600,0.02
150700,0.02
150800,0.02
150900,0.02
151000,0.02
151100,0.02
151200,0.02
151300,0.02
151400,0.02
151500,0.02
151600,0.02
151700,0.02
151800,0.02
151900,0.02
152000,0.02
152100,0.02
152200,0.02
152300,0.02
152400,0.02
152500,0.02
152600,0.02
152700,0.02
152800,0.02
152900,0.02
153000,0.02
153100,0.02
153200,0.02
153300,0.02
153400,0.02
153500,0.02
153600,0.02
153700,0.02
153800,0.02
153900,0.02
154000,0.02
154100,0.02
154200,0.02
154300,0.02
154400,0.02
154500,0.02
154600,0.02
154700,0.02
154800,0.02
154900,0.02
155000,0.02
155100,0.02
155200,0.02
155300,0.02
155400,0.02
155500,0.02
155600,0.02
155700,0.02
155800,0.02
155900,0.02
156000,0.02
156100,0.02
156200,0.02
156300,0.02
156400,0.02
156500,0.02
156600,0.02
156700,0.02
156800,0.02
156900,0.02
157000,0.02
157100,0.02
157200,0.02
157300,0.02
157400,0.02
157500,0.02
157600,0.02
157700,0.02
157800,0.02
157900,0.02
158000,0.02
158100,0.02
158200,0.02
158300,0.02
158400,0.02
158500,0.02
158600,0.02
158700,0.02
158800,0.02
158900,0.02
159000,0.02
159100,0.02
159200,0.02
159300,0.02
159400,0.02
159500,0.02
159600,0.02
159700,0.02
159800,0.02
159900,0.02
160000,0.02
160100,0.02
160200,0.02
160300,0.02
160400,0.02
160500,0.02
160600,0.02
160700,0.02
160800,0.02
160900,0.02
161000,0.02
161100,0.02
161200,0.02
161300,0.02
161400,0.02
161500,0.02
161600,0.02
161700,0.02
161800,0.02
161900,0.02
162000,0.02
162100,0.02
162200,0.02
162300,0.02
162400,0.02
162500,0.02
162600,0.02
162700,0.02
162800,0.02
162900,0.02
163000,0.02
163100,0.02
163200,0.02
163300,0.02
163400,0.02
163500,0.02
163600,0.02
163700,0.02
163800,0.02
163900,0.02
164000,0.02
164100,0.02
164200,0.02
164300,0.02
164400,0.02
164500,0.02
164600,0.02
164700,0.02
164800,0.02
164900,0.02
165000,0.02
165100,0.02
165200,0.02
165300,0.02
165400,0.02
165500,0.02
165600,0.02
165700,0.02
165800,0.02
165900,0.02
166000,0.02
166100,0.02
166200,0.02
166300,0.02
166400,0.02
166500,0.02
166600,0.02
166700,0.02
166800,0.02
166900,0.02
167000,0.02
167100,0.02
167200,0.02
167300,0.02
167400,0.02
167500,0.02
167600,0.02
167700,0.02
167800,0.02
167900,0.02
168000,0.02
168100,0.02
168200,0.02
168300,0.02
168400,0.02
168500,0.02
168600,0.02
168700,0.02
168800,0.02
168900,0.02
169000,0.02
169100,0.02
169200,0.02
169300,0.02
169400,0.02
169500,0.02
169600,0.02
169700,0.02
169800,0.02
169900,0.02
170000,0.02
170100,0.02
170200,0.02
170300,0.02
170400,0.02
170500,0.02
170600,0.02
170700,0.02
170800,0.02
170900,0.02
171000,0.02
171100,0.02
171200,0.02
171300,0.02
171400,0.02
171500,0.02
171600,0.02
171700,0.02
171800,0.02
171900,0.02
172000,0.02
172100,0.02
172200,0.02
172300,0.02
172400,0.02
172500,0.02
172600,0.02
172700,0.02
172800,0.02
172900,0.02
173000,0.02
173100,0.02
173200,0.02
173300,0.02
173400,0.02
173500,0.02
173600,0.02
173700,0.02
173800,0.02
173900,0.02
174000,0.02
174100,0.02
174200,0.02
174300,0.02
174400,0.02
174500,0.02
174600,0.02
174700,0.02
174800,0.02
174900,0.02
175000,0.02
175100,0.02
175200,0.02
175300,0.02
175400,0.02
175500,0.02
175600,0.02
175700,0.02
175800,0.02
175900,0.02
176000,0.02
176100,0.02
176200,0.02
176300,0.02
176400,0.02
176500,0.02
176600,0.02
176700,0.02
176800,0.02
176900,0.02
177000,0.02
177100,0.02
177200,0.02
177300,0.02
177400,0.02
177500,0.02
177600,0.02
177700,0.02
177800,0.02
177900,0.02
178000,0.02
178100,0.02
178200,0.02
178300,0.02
178400,0.02
178500,0.02
178600,0.02
178700,0.02
178800,0.02
178900,0.02
179000,0.02
179100,0.02
179200,0.02
179300,0.02
179400,0.02
179500,0.02
179600,0.02
179700,0.02
179800,0.02
179900,0.02
180000,0.02
180100,0.02
180200,0.02
180300,0.02
180400,0.02
180500,0.02
180600,0.02
180700,0.02
180800,0.02
180900,0.02
181000,0.02
181100,0.02
181200,0.02
181300,0.02
181400,0.02
181500,0.02
181600,0.02
181700,0.02
181800,0.02
181900,0.02
182000,0.02
182100,0.02
182200,0.02
182300,0.02
182400,0.02
182500,0.02
182600,0.02
182700,0.02
182800,0.02
182900,0.02
183000,0.02
183100,0.02
183200,0.02
183300,0.02
183400,0.02
183500,0.02
183600,0.02
183700,0.02
183800,0.02
183900,0.02
184000,0.02
184100,0.02
184200,0.02
184300,0.02
184400,0.02
184500,0.02
184600,0.02
184700,0.02
184800,0.02
184900,0.02
185000,0.02
185100,0.02
185200,0.02
185300,0.02
185400,0.02
185500,0.02
185600,0.02
185700,0.02
185800,0.02
185900,0.02
186000,0.02
186100,0.02
186200,0.02
186300,0.02
186400,0.02
186500,0.02
186600,0.02
186700,0.02
186800,0.02
186900,0.02
187000,0.02
187100,0.02
187200,0.02
187300,0.02
187400,0.02
187500,0.02
187600,0.02
187700,0.02
187800,0.02
187900,0.02
188000,0.02
188100,0.02
188200,0.02
188300,0.02
188400,0.02
188500,0.02
188600,0.02
188700,0.02
188800,0.02
188900,0.02
189000,0.02
189100,0.02
189200,0.02
189300,0.02
189400,0.02
189500,0.02
189600,0.02
189700,0.02
189800,0.02
189900,0.02
190000,0.02
190100,0.02
190200,0.02
190300,0.02
190400,0.02
190500,0.02
190600,0.02
190700,0.02
190800,0.02
190900,0.02
191000,0.02
191100,0.02
191200,0.02
191300,0.02
191400,0.02
191500,0.02
191600,0.02
191700,0.02
191800,0.02
191900,0.02
192000,0.02
192100,0.02
192200,0.02
192300,0.02
192400,0.02
192500,0.02
192600,0.02
192700,0.02
192800,0.02
192900,0.02
193000,0.02
193100,0.02
193200,0.02
193300,0.02
193400,0.02
193500,0.02
193600,0.02
193700,0.02
193800,0.02
193900,0.02
194000,0.02
194100,0.02
194200,0.02
194300,0.02
194400,0.02
194500,0.02
194600,0.02
194700,0.02
194800,0.02
194900,0.02
195000,0.02
195100,0.02
195200,0.02
195300,0.02
195400,0.02
195500,0.02
195600,0.02
195700,0.02
195800,0.02
195900,0.02
196000,0.02
196100,0.02
196200,0.02
196300,0.02
196400,0.02
196500,0.02
196600,0.02
196700,0.02
196800,0.02
196900,0.02
197000,0.02
197100,0.02
197200,0.02
197300,0.02
197400,0.02
197500,0.02
197600,0.02
197700,0.02
197800,0.02
197900,0.02
198000,0.02
198100,0.02
198200,0.02
198300,0.02
198400,0.02
198500,0.02
198600,0.02
198700,0.02
198800,0.02
198900,0.02
199000,0.02
199100,0.02
199200,0.02
199300,0.02
199400,0.02
199500,0.02
199600,0.02
199700,0.02
199800,0.02
199900,0.02
200000,-0.82
200100,-0.96
200200,-0.88
200300,-0.96
200400,-0.94
200500,-0.82
200600,-0.82
200700,-0.7
200800,-0.68
200900,-0.78
201000,-0.74
201100,-0.86
201200,-0.84
201300,-0.86
201400,-0.82
201500,-0.72
201600,-0.82
201700,-0.74
201800,-0.76
201900,-0.82
202000,-0.74
202100,-0.8
202200,-0.96
202300,-0.86
202400,-0.96
202500,-1.02
202600,-1
202700,-0.94
202800,-0.9
202900,-1.02
203000,-1.16
203100,-1.22
203200,-0.98
203300,-0.86
203400,-0.94
203500,-1
203600,-1.14
203700,-1.18
203800,-1.14
203900,-1
204000,-1
204100,-1
204200,-0.98
204300,-0.96
204400,-0.9
204500,-1
204600,-0.9
204700,-0.82
204800,-0.8
204900,-0.78
205000,-0.8
205100,-0.8
205200,-0.88
205300,-0.94
205400,-0.78
205500,-0.82
205600,-0.86
205700,-0.78
205800,-0.78
205900,-0.8
206000,-0.74
206100,-0.74
206200,-0.76
206300,-0.74
206400,-0.78
206500,-0.78
206600,-0.8
206700,-0.68
206800,-0.68
206900,-0.72
207000,-0.82
207100,-0.78
207200,-0.7
207300,-0.74
207400,-0.82
207500,-0.72
207600,-0.78
207700,-0.74
207800,-0.72
207900,-0.72
208000,-0.78
208100,-0.78
208200,-0.82
208300,-0.9
208400,-1.04
208500,-1.1
208600,-0.98
208700,-0.92
208800,-0.92
208900,-0.94
209000,-0.96
209100,-1
209200,-0.96
209300,-0.92
209400,-0.86
209500,-0.8
209600,-0.7
209700,-0.7
209800,-0.8
209900,-0.8
210000,-0.84
210100,-0.84
210200,-0.78
210300,-0.78
210400,-0.84
210500,-0.78
210600,-0.88
210700,-0.76
210800,-0.84
210900,-0.86
211000,-0.76
211100,-0.74
211200,-0.76
211300,-0.86
211400,-0.88
211500,-0.8
211600,-0.76
211700,-0.84
211800,-0.9
211900,-0.86
212000,-0.82
212100,-0.82
212200,-0.76
212300,-0.82
212400,-0.8
212500,-0.86
212600,-0.82
212700,-0.74
212800,-0.74
212900,-0.66
213000,-0.7
213100,-0.76
213200,-0.7
213300,-0.74
213400,-0.78
213500,-0.7
213600,-0.76
213700,-0.78
213800,-0.76
213900,-0.84
214000,-1
214100,-0.88
214200,-0.82
214300,-0.72
214400,-0.74
214500,-0.72
214600,-0.74
214700,-0.7
214800,-0.72
214900,-0.82
215000,-0.84
215100,-0.76
215200,-0.8
215300,-0.82
215400,-0.86
215500,-0.9
215600,-0.86
215700,-0.9
215800,-0.94
215900,-0.82
216000,-0.74
216100,-0.72
216200,-0.78
216300,-0.86
216400,-0.88
216500,-0.82
216600,-0.76
216700,-0.74
216800,-0.76
216900,-0.68
217000,-0.76
217100,-0.82
217200,-0.86
217300,-0.84
217400,-0.78
217500,-0.8
217600,-0.72
217700,-0.76
217800,-0.74
217900,-0.74
218000,-0.74
218100,-0.84
218200,-0.92
218300,-0.9
218400,-0.9
218500,-0.92
218600,-0.9
218700,-1.02
218800,-0.92
218900,-0.88
219000,-0.8
219100,-0.78
219200,-0.84
219300,-0.78
219400,-0.8
219500,-0.78
219600,-0.86
219700,-0.88
219800,-0.96
219900,-0.96
220000,-1.1
220100,-1.14
220200,-1.06
220300,-1.04
220400,-1.04
220500,-1.18
220600,-1.24
220700,-1.2
220800,-1.32
220900,-1.2
221000,-1.16
221100,-1.08
221200,-1.16
221300,-1.18
221400,-1.32
221500,-1.28
221600,-1.28
221700,-1.36
221800,-1.56
221900,-1.64
222000,-1.7
222100,-1.9
222200,-1.82
222300,-1.96
222400,-1.96
222500,-2.02
222600,-2.22
222700,-2.18
222800,-2.28
222900,-2.32
223000,-2.32
223100,-2.24
223200,-2.44
223300,-2.5
223400,-2.46
223500,-2.44
223600,-2.4
223700,-2.54
223800,-2.4
223900,-2.4
224000,-2.4
224100,-2.44
224200,-2.46
224300,-2.54
224400,-2.48
224500,-2.38
224600,-2.42
224700,-2.44
224800,-2.52
224900,-2.6
225000,-2.64
225100,-2.62
225200,-2.6
225300,-2.62
225400,-2.48
225500,-2.54
225600,-2.64
225700,-2.64
225800,-2.58
225900,-2.6
226000,-2.46
226100,-2.5
226200,-2.46
226300,-2.62
226400,-2.58
226500,-2.54
226600,-2.58
226700,-2.54
226800,-2.54
226900,-2.52
227000,-2.56
227100,-2.5
227200,-2.54
227300,-2.54
227400,-2.6
227500,-2.64
227600,-2.64
227700,-2.58
227800,-2.54
227900,-2.54
228000,-2.46
228100,-2.56
228200,-2.54
228300,-2.58
228400,-2.6
228500,-2.62
228600,-2.6
228700,-2.6
228800,-2.58
228900,-2.54
229000,-2.44
229100,-2.52
229200,-2.44
229300,-2.3
229400,-2.32
229500,-2.34
229600,-2.28
229700,-2.44
229800,-2.38
229900,-2.42
230000,-2.38
230100,-2.3
230200,-2.18
230300,-2.1
230400,-2.18
230500,-2.16
230600,-2.12
230700,-1.98
230800,-1.98
230900,-2.2
231000,-2.3
231100,-2.38
231200,-2.42
231300,-2.44
231400,-2.46
231500,-2.5
231600,-2.32
231700,-2.36
231800,-2.42
231900,-2.36
232000,-2.36
232100,-2.42
232200,-2.24
232300,-2.2
232400,-2.34
232500,-2.54
232600,-2.62
232700,-2.62
232800,-2.54
232900,-2.46
233000,-2.36
233100,-2.4
233200,-2.24
233300,-2.22
233400,-2.34
233500,-2.3
233600,-2.2
233700,-2.18
233800,-2.2
233900,-2.2
234000,-2.34
234100,-2.38
234200,-2.4
234300,-2.4
234400,-2.28
234500,-2.48
234600,-2.5
234700,-2.58
234800,-2.44
234900,-2.44
235000,-2.42
235100,-2.46
235200,-2.54
235300,-2.48
235400,-2.52
235500,-2.52
235600,-2.42
235700,-2.36
235800,-2.44
235900,-2.54
236000,-2.46
236100,-2.44
236200,-2.52
236300,-2.4
236400,-2.28
236500,-2.44
236600,-2.3
236700,-2.5
236800,-2.4
236900,-2.32
237000,-2.44
237100,-2.48
237200,-2.52
237300,-2.48
237400,-2.6
237500,-2.56
237600,-2.54
237700,-2.52
237800,-2.6
237900,-2.56
238000,-2.42
238100,-2.3
238200,-2.2
238300,-2.2
238400,-2.2
238500,-2.32
238600,-2.46
238700,-2.38
238800,-2.46
238900,-2.4
239000,-2.2
239100,-2.28
239200,-2.28
239300,-2.24
239400,-2.14
239500,-2.34
239600,-2.3
239700,-2.36
239800,-2.38
239900,-2.18
240000,-2.3
240100,-2.3
240200,-2.48
240300,-2.44
240400,-2.48
240500,-2.58
240600,-2.58
240700,-2.62
240800,-2.54
240900,-2.56
241000,-2.44
241100,-2.3
241200,-2.18
241300,-2.16
241400,-2.1
241500,-2.14
241600,-2.22
241700,-2.06
241800,-2
241900,-2.08
242000,-1.98
242100,-1.92
242200,-1.92
242300,-2.16
242400,-2.12
242500,-2.22
242600,-2.3
242700,-2.26
242800,-2.24
242900,-2.28
243000,-2.16
243100,-2.12
243200,-2.1
243300,-2.14
243400,-2.28
243500,-2.24
243600,-2.2
243700,-2.2
243800,-2.1
243900,-2.12
244000,-2.02
244100,-1.94
244200,-1.88
244300,-1.82
244400,-1.98
244500,-1.86
244600,-1.92
244700,-1.84
244800,-1.8
244900,-1.86
245000,-2.04
245100,-2.1
245200,-2.1
245300,-2.08
245400,-1.98
245500,-2.08
245600,-2.2
245700,-2.24
245800,-2.18
245900,-2.34
246000,-2.48
246100,-2.6
246200,-2.54
246300,-2.5
246400,-2.48
246500,-2.5
246600,-2.54
246700,-2.58
246800,-2.54
246900,-2.66
247000,-2.66
247100,-2.54
247200,-2.5
247300,-2.5
247400,-2.54
247500,-2.44
247600,-2.44
247700,-2.32
247800,-2.14
247900,-2.22
248000,-2.22
248100,-2.44
248200,-2.46
248300,-2.4
248400,-2.22
248500,-2.26
248600,-2.32
248700,-2.36
248800,-2.48
248900,-2.3
249000,-2.36
249100,-2.48
249200,-2.42
249300,-2.22
249400,-2.18
249500,-2
249600,-2.14
249700,-2.18
249800,-2.08
249900,-1.98
250000,-2.02
250100,-2.06
250200,-2.02
250300,-2
250400,-2.04
250500,-1.98
250600,-2.16
250700,-1.92
250800,-1.94
250900,-1.98
251000,-2.16
251100,-2.28
251200,-2.28
251300,-2.22
251400,-2.28
251500,-2.24
251600,-2.16
251700,-2.16
251800,-2.28
251900,-2.32
252000,-2.3
252100,-2.48
252200,-2.5
252300,-2.46
252400,-2.54
252500,-2.64
252600,-2.58
252700,-2.58
252800,-2.5
252900,-2.6
253000,-2.5
253100,-2.48
253200,-2.5
253300,-2.48
253400,-2.5
253500,-2.36
253600,-2.22
253700,-2.16
253800,-2.18
253900,-2.18
254000,-2.3
254100,-2.38
254200,-2.42
254300,-2.42
254400,-2.38
254500,-2.32
254600,-2.34
254700,-2.34
254800,-2.44
254900,-2.38
255000,-2.32
255100,-2.26
255200,-2.36
255300,-2.42
255400,-2.48
255500,-2.4
255600,-2.36
255700,-2.48
255800,-2.52
255900,-2.58
256000,-2.58
256100,-2.5
256200,-2.56
256300,-2.58
256400,-2.6
256500,-2.64
256600,-2.62
256700,-2.62
256800,-2.6
256900,-2.6
257000,-2.6
257100,-2.58
257200,-2.52
257300,-2.56
257400,-2.54
257500,-2.54
257600,-2.38
257700,-2.3
257800,-2.2
257900,-2.24
258000,-2.44
258100,-2.42
258200,-2.32
258300,-2.52
258400,-2.5
258500,-2.52
258600,-2.48
258700,-2.54
258800,-2.38
258900,-2.38
259000,-2.36
259100,-2.4
259200,-2.3
259300,-2.32
259400,-2.36
259500,-2.32
259600,-2.4
259700,-2.48
259800,-2.42
259900,-2.5
260000,-2.52
260100,-2.52
260200,-2.46
260300,-2.4
260400,-2.3
260500,-2.38
260600,-2.22
260700,-2.22
260800,-2.4
260900,-2.4
261000,-2.16
261100,-2.16
261200,-2.2
261300,-2.26
261400,-2.38
261500,-2.36
261600,-2.4
261700,-2.36
261800,-2.44
261900,-2.48
262000,-2.52
262100,-2.48
262200,-2.54
262300,-2.42
262400,-2.46
262500,-2.44
262600,-2.6
262700,-2.6
262800,-2.66
262900,-2.54
263000,-2.48
263100,-2.6
263200,-2.58
263300,-2.4
263400,-2.44
263500,-2.3
263600,-2.2
263700,-2.42
263800,-2.3
263900,-2.26
264000,-2.22
264100,-2.24
264200,-2.3
264300,-2.42
264400,-2.52
264500,-2.48
264600,-2.44
264700,-2.54
264800,-2.48
264900,-2.48
265000,-2.54
265100,-2.66
265200,-2.62
265300,-2.66
265400,-2.64
265500,-2.56
265600,-2.58
265700,-2.46
265800,-2.42
265900,-2.56
266000,-2.56
266100,-2.54
266200,-2.56
266300,-2.62
266400,-2.64
266500,-2.58
266600,-2.52
266700,-2.54
266800,-2.54
266900,-2.58
267000,-2.6
267100,-2.54
267200,-2.58
267300,-2.48
267400,-2.48
267500,-2.46
267600,-2.48
267700,-2.56
267800,-2.56
267900,-2.58
268000,-2.6
268100,-2.62
268200,-2.54
268300,-2.6
268400,-2.64
268500,-2.58
268600,-2.6
268700,-2.6
268800,-2.62
268900,-2.6
269000,-2.6
269100,-2.46
269200,-2.5
269300,-2.44
269400,-2.42
269500,-2.54
269600,-2.52
269700,-2.64
269800,-2.64
269900,-2.6
270000,-2.6
270100,-2.52
270200,-2.6
270300,-2.56
270400,-2.6
270500,-2.58
270600,-2.56
270700,-2.54
270800,-2.52
270900,-2.58
271000,-2.58
271100,-2.54
271200,-2.54
271300,-2.58
271400,-2.52
271500,-2.58
271600,-2.66
271700,-2.58
271800,-2.56
271900,-2.5
272000,-2.56
272100,-2.5
272200,-2.54
272300,-2.64
272400,-2.64
272500,-2.64
272600,-2.54
272700,-2.56
272800,-2.54
272900,-2.52
273000,-2.58
273100,-2.52
273200,-2.5
273300,-2.56
273400,-2.54
273500,-2.48
273600,-2.28
273700,-2.3
273800,-2.12
273900,-2.02
274000,-1.94
274100,-2.04
274200,-2.12
274300,-1.98
274400,-1.94
274500,-1.78
274600,-1.78
274700,-1.86
274800,-1.74
274900,-1.9
275000,-1.76
275100,-1.6
275200,-1.62
275300,-1.66
275400,-1.56
275500,-1.54
275600,-1.62
275700,-1.6
275800,-1.82
275900,-1.78
276000,-1.8
276100,-1.56
276200,-1.68
276300,-1.84
276400,-1.94
276500,-1.96
276600,-1.86
276700,-1.78
276800,-1.74
276900,-1.62
277000,-1.66
277100,-1.76
277200,-1.84
277300,-1.86
277400,-1.8
277500,-1.8
277600,-1.62
277700,-1.6
277800,-1.4
277900,-1.52
278000,-1.52
278100,-1.42
278200,-1.44
278300,-1.34
278400,-1.3
278500,-1.48
278600,-1.56
278700,-1.62
278800,-1.56
278900,-1.48
279000,-1.44
279100,-1.5
279200,-1.64
279300,-1.86
279400,-1.9
279500,-1.94
279600,-2.08
279700,-1.96
279800,-2.02
279900,-1.84
280000,-1.86
280100,-1.9
280200,-1.96
280300,-1.74
280400,-1.64
280500,-1.6
280600,-1.82
280700,-1.82
280800,-1.72
280900,-1.86
281000,-1.92
281100,-1.88
281200,-1.98
281300,-1.82
281400,-1.9
281500,-1.96
281600,-2.06
281700,-2.1
281800,-2
281900,-1.82
282000,-1.86
282100,-1.78
282200,-1.74
282300,-1.6
282400,-1.72
282500,-1.6
282600,-1.52
282700,-1.36
282800,-1.26
282900,-1.12
283000,-1.18
283100,-1.24
283200,-1.06
283300,-1
283400,-0.88
283500,-0.9
283600,-0.8
283700,-0.78
283800,-0.8
283900,-0.8
284000,-0.76
284100,-0.86
284200,-0.98
284300,-0.94
284400,-0.88
284500,-0.98
284600,-0.86
284700,-0.88
284800,-0.82
284900,-0.78
285000,-0.9
285100,-0.8
285200,-0.76
285300,-0.78
285400,-0.78
285500,-0.78
285600,-0.8
285700,-0.94
285800,-0.9
285900,-0.94
286000,-1.02
286100,-1
286200,-0.96
286300,-1.08
286400,-1.02
286500,-1.1
286600,-0.94
286700,-1.06
286800,-1
286900,-0.9
287000,-0.86
287100,-0.86
287200,-0.74
287300,-0.74
287400,-0.78
287500,-0.76
287600,-0.78
287700,-0.66
287800,-0.68
287900,-0.76
288000,-0.7
288100,-0.74
288200,-0.8
288300,-0.78
288400,-0.8
288500,-0.88
288600,-0.96
288700,-0.8
288800,-1
288900,-0.82
289000,-0.78
289100,-0.82
289200,-0.82
289300,-0.8
289400,-0.72
289500,-0.74
289600,-0.78
289700,-0.72
289800,-0.7
289900,-0.74
290000,-0.78
290100,-0.78
290200,-0.76
290300,-0.78
290400,-0.82
290500,-0.86
290600,-0.9
290700,-0.82
290800,-0.92
290900,-0.84
291000,-0.86
291100,-0.78
291200,-0.8
291300,-0.82
291400,-0.82
291500,-0.82
291600,-0.88
291700,-0.92
291800,-1.1
291900,-1.14
292000,-0.92
292100,-0.92
292200,-1.02
292300,-0.96
292400,-1.14
292500,-1.18
292600,-1.38
292700,-1.28
292800,-1.2
292900,-1.16
293000,-1.12
293100,-0.96
293200,-1.08
293300,-1.12
293400,-1.22
293500,-1.46
293600,-1.56
293700,-1.46
293800,-1.28
293900,-1.16
294000,-1.22
294100,-1.2
294200,-0.94
294300,-0.86
294400,-0.8
294500,-0.72
294600,-0.78
294700,-0.74
294800,-0.78
294900,-0.82
295000,-0.86
295100,-0.82
295200,-0.9
295300,-0.96
295400,-0.8
295500,-0.84
295600,-0.8
295700,-0.8
295800,-0.86
295900,-0.8
296000,-0.78
296100,-0.72
296200,-0.74
296300,-0.68
296400,-0.7
296500,-0.68
296600,-0.78
296700,-0.8
296800,-0.86
296900,-0.78
297000,-0.8
297100,-0.8
297200,-0.8
297300,-0.74
297400,-0.72
297500,-0.84
297600,-0.78
297700,-0.72
297800,-0.84
297900,-0.72
298000,-0.86
298100,-0.84
298200,-0.86
298300,-0.84
298400,-0.94
298500,-0.94
298600,-1.06
298700,-0.9
298800,-0.82
298900,-0.86
299000,-0.86
299100,-0.74
299200,-0.76
299300,-0.78
299400,-0.78
299500,-0.78
299600,-0.84
299700,-0.96
299800,-0.88
299900,-0.88
